%YAML 1.1
%TAG !u! tag:unity3d.com,2011:
--- !u!1 &2537461014397481287
GameObject:
  m_ObjectHideFlags: 0
  m_CorrespondingSourceObject: {fileID: 0}
  m_PrefabInstance: {fileID: 0}
  m_PrefabAsset: {fileID: 0}
  serializedVersion: 6
  m_Component:
  - component: {fileID: 2537461014397481289}
  - component: {fileID: 2537461014397481288}
  - component: {fileID: 2537461014397481290}
  - component: {fileID: 7246992397472870671}
  m_Layer: 8
  m_Name: Player
  m_TagString: Untagged
  m_Icon: {fileID: 0}
  m_NavMeshLayer: 0
  m_StaticEditorFlags: 0
  m_IsActive: 1
--- !u!4 &2537461014397481289
Transform:
  m_ObjectHideFlags: 0
  m_CorrespondingSourceObject: {fileID: 0}
  m_PrefabInstance: {fileID: 0}
  m_PrefabAsset: {fileID: 0}
  m_GameObject: {fileID: 2537461014397481287}
  m_LocalRotation: {x: 0, y: 0, z: 0, w: 1}
  m_LocalPosition: {x: 0, y: -9.5, z: 0}
  m_LocalScale: {x: 1, y: 1, z: 1}
  m_Children: []
  m_Father: {fileID: 0}
  m_RootOrder: 0
  m_LocalEulerAnglesHint: {x: 0, y: 0, z: 0}
--- !u!212 &2537461014397481288
SpriteRenderer:
  m_ObjectHideFlags: 0
  m_CorrespondingSourceObject: {fileID: 0}
  m_PrefabInstance: {fileID: 0}
  m_PrefabAsset: {fileID: 0}
  m_GameObject: {fileID: 2537461014397481287}
  m_Enabled: 1
  m_CastShadows: 0
  m_ReceiveShadows: 0
  m_DynamicOccludee: 1
  m_MotionVectors: 1
  m_LightProbeUsage: 1
  m_ReflectionProbeUsage: 1
  m_RayTracingMode: 0
  m_RenderingLayerMask: 1
  m_RendererPriority: 0
  m_Materials:
  - {fileID: 10754, guid: 0000000000000000f000000000000000, type: 0}
  m_StaticBatchInfo:
    firstSubMesh: 0
    subMeshCount: 0
  m_StaticBatchRoot: {fileID: 0}
  m_ProbeAnchor: {fileID: 0}
  m_LightProbeVolumeOverride: {fileID: 0}
  m_ScaleInLightmap: 1
  m_ReceiveGI: 1
  m_PreserveUVs: 0
  m_IgnoreNormalsForChartDetection: 0
  m_ImportantGI: 0
  m_StitchLightmapSeams: 1
  m_SelectedEditorRenderState: 0
  m_MinimumChartSize: 4
  m_AutoUVMaxDistance: 0.5
  m_AutoUVMaxAngle: 89
  m_LightmapParameters: {fileID: 0}
  m_SortingLayerID: -1016408501
  m_SortingLayer: 2
  m_SortingOrder: 0
  m_Sprite: {fileID: 21300000, guid: f4e56c333fb7c884eae09f5fdf43470e, type: 3}
  m_Color: {r: 1, g: 1, b: 1, a: 1}
  m_FlipX: 0
  m_FlipY: 0
  m_DrawMode: 0
  m_Size: {x: 0.99, y: 0.75}
  m_AdaptiveModeThreshold: 0.5
  m_SpriteTileMode: 0
  m_WasSpriteAssigned: 1
  m_MaskInteraction: 0
  m_SpriteSortPoint: 0
--- !u!114 &2537461014397481290
MonoBehaviour:
  m_ObjectHideFlags: 0
  m_CorrespondingSourceObject: {fileID: 0}
  m_PrefabInstance: {fileID: 0}
  m_PrefabAsset: {fileID: 0}
  m_GameObject: {fileID: 2537461014397481287}
  m_Enabled: 1
  m_EditorHideFlags: 0
  m_Script: {fileID: 11500000, guid: 6c959178f43627a4399070374afde672, type: 3}
  m_Name: 
  m_EditorClassIdentifier: 
  moveSpeed: 30
  padding: 0.5
  health: 200
  gameOverSound: {fileID: 8300000, guid: 9a0ba640502c00f45b2c0de10a22b2bd, type: 3}
  laserSound: {fileID: 8300000, guid: 56c027dfe4b866442a0ccb910b4a6ffb, type: 3}
  laserVolume: 0.2
  breakVolume: 0.8
  laserPrefab: {fileID: 8915154064509650863, guid: 20a0db43a5e3b354f89b55bf1f3d9fd3,
    type: 3}
  projectileSpeed: 20
  projectileFiringPeriod: 0.1
--- !u!60 &7246992397472870671
PolygonCollider2D:
  m_ObjectHideFlags: 0
  m_CorrespondingSourceObject: {fileID: 0}
  m_PrefabInstance: {fileID: 0}
  m_PrefabAsset: {fileID: 0}
  m_GameObject: {fileID: 2537461014397481287}
  m_Enabled: 1
  m_Density: 1
  m_Material: {fileID: 0}
  m_IsTrigger: 0
  m_UsedByEffector: 0
  m_UsedByComposite: 0
  m_Offset: {x: 0, y: 0}
  m_SpriteTilingProperty:
    border: {x: 0, y: 0, z: 0, w: 0}
    pivot: {x: 0.5, y: 0.5}
    oldSize: {x: 0.99, y: 0.75}
    newSize: {x: 0.99, y: 0.75}
    adaptiveTilingThreshold: 0.5
    drawMode: 0
    adaptiveTiling: 0
  m_AutoTiling: 0
  m_Points:
    m_Paths:
    - - {x: 0.48934472, y: 0.054279327}
      - {x: 0.44653523, y: 0.0655117}
      - {x: 0.4092382, y: 0.008712769}
      - {x: 0.3593082, y: -0.00983429}
      - {x: 0.125, y: 0.12307358}
      - {x: 0.084305465, y: 0.375}
      - {x: -0.084649764, y: 0.3764534}
      - {x: -0.11883539, y: 0.12209225}
      - {x: -0.35920477, y: -0.0188694}
      - {x: -0.4074517, y: 0.005402565}
      - {x: -0.45866027, y: 0.07319641}
      - {x: -0.49645355, y: 0.045718193}
      - {x: -0.4613397, y: -0.24866009}
      - {x: -0.13337131, y: -0.28046417}
      - {x: -0.0717426, y: -0.375}
      - {x: 0.074474595, y: -0.3735466}
      - {x: 0.14162008, y: -0.2748251}
      - {x: 0.42738175, y: -0.24755669}
      - {x: 0.46592817, y: -0.24482441}
